%YAML 1.1
%TAG !u! tag:unity3d.com,2011:
--- !u!1 &8151092123737789752
GameObject:
  m_ObjectHideFlags: 0
  m_CorrespondingSourceObject: {fileID: 0}
  m_PrefabInstance: {fileID: 0}
  m_PrefabAsset: {fileID: 0}
  serializedVersion: 6
  m_Component:
  - component: {fileID: 5432166566569644690}
  m_Layer: 0
  m_Name: 360 Photo Sphere (full) (After Tunnel Exit)
  m_TagString: Untagged
  m_Icon: {fileID: 0}
  m_NavMeshLayer: 0
  m_StaticEditorFlags: 0
  m_IsActive: 1
--- !u!4 &5432166566569644690
Transform:
  m_ObjectHideFlags: 0
  m_CorrespondingSourceObject: {fileID: 0}
  m_PrefabInstance: {fileID: 0}
  m_PrefabAsset: {fileID: 0}
  m_GameObject: {fileID: 8151092123737789752}
  m_LocalRotation: {x: 0, y: 0, z: 0, w: 1}
  m_LocalPosition: {x: 0, y: 0, z: 0}
  m_LocalScale: {x: 1, y: 1, z: 1}
  m_Children:
  - {fileID: 187276603919151352}
  m_Father: {fileID: 0}
  m_RootOrder: 0
  m_LocalEulerAnglesHint: {x: 0, y: 0, z: 0}
--- !u!1001 &5180234524982647778
PrefabInstance:
  m_ObjectHideFlags: 0
  serializedVersion: 2
  m_Modification:
    m_TransformParent: {fileID: 5432166566569644690}
    m_Modifications:
    - target: {fileID: -927199367670048503, guid: 75e72034f9b7a1d4baad1f4c987608ab,
        type: 3}
      propertyPath: m_Name
      value: InvertedSphere
      objectReference: {fileID: 0}
    - target: {fileID: -4216859302048453862, guid: 75e72034f9b7a1d4baad1f4c987608ab,
        type: 3}
      propertyPath: m_LocalPosition.x
      value: -0
      objectReference: {fileID: 0}
    - target: {fileID: -4216859302048453862, guid: 75e72034f9b7a1d4baad1f4c987608ab,
        type: 3}
      propertyPath: m_LocalPosition.y
      value: 0
      objectReference: {fileID: 0}
    - target: {fileID: -4216859302048453862, guid: 75e72034f9b7a1d4baad1f4c987608ab,
        type: 3}
      propertyPath: m_LocalPosition.z
      value: 0
      objectReference: {fileID: 0}
    - target: {fileID: -4216859302048453862, guid: 75e72034f9b7a1d4baad1f4c987608ab,
        type: 3}
      propertyPath: m_LocalRotation.x
      value: 0.0017610807
      objectReference: {fileID: 0}
    - target: {fileID: -4216859302048453862, guid: 75e72034f9b7a1d4baad1f4c987608ab,
        type: 3}
      propertyPath: m_LocalRotation.y
      value: 0.7653469
      objectReference: {fileID: 0}
    - target: {fileID: -4216859302048453862, guid: 75e72034f9b7a1d4baad1f4c987608ab,
        type: 3}
      propertyPath: m_LocalRotation.z
      value: -0.02145593
      objectReference: {fileID: 0}
    - target: {fileID: -4216859302048453862, guid: 75e72034f9b7a1d4baad1f4c987608ab,
        type: 3}
      propertyPath: m_LocalRotation.w
      value: 0.64325786
      objectReference: {fileID: 0}
    - target: {fileID: -4216859302048453862, guid: 75e72034f9b7a1d4baad1f4c987608ab,
        type: 3}
      propertyPath: m_RootOrder
      value: 0
      objectReference: {fileID: 0}
    - target: {fileID: -4216859302048453862, guid: 75e72034f9b7a1d4baad1f4c987608ab,
        type: 3}
      propertyPath: m_LocalEulerAnglesHint.x
      value: 2.012
      objectReference: {fileID: 0}
    - target: {fileID: -4216859302048453862, guid: 75e72034f9b7a1d4baad1f4c987608ab,
        type: 3}
      propertyPath: m_LocalEulerAnglesHint.y
      value: 99.882
      objectReference: {fileID: 0}
    - target: {fileID: -4216859302048453862, guid: 75e72034f9b7a1d4baad1f4c987608ab,
        type: 3}
      propertyPath: m_LocalEulerAnglesHint.z
      value: -1.4280001
      objectReference: {fileID: 0}
    - target: {fileID: -4216859302048453862, guid: 75e72034f9b7a1d4baad1f4c987608ab,
        type: 3}
      propertyPath: m_LocalScale.x
      value: 2.6315
      objectReference: {fileID: 0}
    - target: {fileID: -4216859302048453862, guid: 75e72034f9b7a1d4baad1f4c987608ab,
        type: 3}
      propertyPath: m_LocalScale.y
      value: 2.6315
      objectReference: {fileID: 0}
    - target: {fileID: -4216859302048453862, guid: 75e72034f9b7a1d4baad1f4c987608ab,
        type: 3}
      propertyPath: m_LocalScale.z
      value: 2.6315
      objectReference: {fileID: 0}
    - target: {fileID: -3815348637671979988, guid: 75e72034f9b7a1d4baad1f4c987608ab,
        type: 3}
      propertyPath: m_Materials.Array.data[0]
      value: 
      objectReference: {fileID: 2100000, guid: 1a72ee64f76344048b35c1ca52546fa2, type: 2}
    m_RemovedComponents: []
  m_SourcePrefab: {fileID: 100100000, guid: 75e72034f9b7a1d4baad1f4c987608ab, type: 3}
--- !u!4 &187276603919151352 stripped
Transform:
  m_CorrespondingSourceObject: {fileID: -4216859302048453862, guid: 75e72034f9b7a1d4baad1f4c987608ab,
    type: 3}
  m_PrefabInstance: {fileID: 5180234524982647778}
  m_PrefabAsset: {fileID: 0}
